1 10 20
100 200 125
201 210 89
900 1000 174
1 1 1
2 1 2
1 10 20
5 2 8
2 20 21
10 4 20
3 30 112
15 6 20
4 40 112
20 8 21
5 50 112
25 10 24
6 60 113
30 12 112
7 70 113
35 14 112
8 80 116
40 16 112
9 90 116
45 18 112
10 100 119
50 20 112
11 110 119
55 22 113
12 120 119
60 24 113
13 130 122
65 26 113
14 140 122
70 28 113
15 150 122
75 30 116
16 160 122
80 32 116
17 170 122
85 34 116
18 180 125
90 36 116
19 190 125
95 38 116
20 200 125
100 40 119
21 210 125
105 42 119
22 220 125
110 44 119
23 230 125
115 46 119
24 240 128
120 48 119
25 250 128
125 50 119
26 260 128
130 52 122
27 270 128
135 54 122
28 280 128
140 56 122
29 290 128
145 58 122
30 300 128
150 60 122
31 310 128
155 62 122
32 320 131
160 64 122
33 330 144
165 66 122
34 340 144
170 68 122
35 350 144
175 70 125
36 360 144
180 72 125
37 370 144
185 74 125
38 380 144
190 76 125
39 390 144
195 78 125
40 400 144
200 80 125
41 410 144
205 82 125
42 420 144
210 84 125
43 430 144
215 86 125
44 440 144
220 88 125
45 450 144
225 90 125
46 460 144
230 92 125
47 470 144
235 94 128
48 480 144
240 96 128
49 490 144
245 98 128
50 500 144
250 100 128
51 510 144
255 102 128
52 520 144
260 104 128
53 530 144
265 106 128
54 540 144
270 108 128
55 550 144
275 110 128
56 560 144
280 112 128
57 570 144
285 114 128
58 580 144
290 116 128
59 590 144
295 118 128
60 600 144
300 120 128
61 610 144
305 122 128
62 620 144
310 124 128
63 630 144
315 126 131
64 640 144
320 128 131
65 650 145
325 130 131
66 660 145
330 132 144
67 670 145
335 134 144
68 680 145
340 136 144
69 690 145
345 138 144
70 700 145
350 140 144
71 710 171
355 142 144
72 720 171
360 144 144
73 730 171
365 146 144
74 740 171
370 148 144
75 750 171
375 150 144
76 760 171
380 152 144
77 770 171
385 154 144
78 780 171
390 156 144
79 790 171
395 158 144
80 800 171
400 160 144
81 810 171
405 162 144
82 820 171
410 164 144
83 830 171
415 166 144
84 840 171
420 168 144
85 850 171
425 170 144
86 860 171
430 172 144
87 870 171
435 174 144
88 880 179
440 176 144
89 890 179
445 178 144
90 900 179
450 180 144
91 910 179
455 182 144
92 920 179
460 184 144
93 930 179
465 186 144
94 940 179
470 188 144
95 950 179
475 190 144
96 960 179
480 192 144
97 970 179
485 194 144
98 980 179
490 196 144
99 990 179
495 198 144
100 1000 179
500 200 144
101 1010 179
505 202 144
102 1020 179
510 204 144
103 1030 179
515 206 144
104 1040 179
520 208 144
105 1050 179
525 210 144
106 1060 179
530 212 144
107 1070 179
535 214 144
108 1080 179
540 216 144
109 1090 179
545 218 144
110 1100 179
550 220 144
111 1110 179
555 222 144
112 1120 179
560 224 144
113 1130 179
565 226 144
114 1140 179
570 228 144
115 1150 179
575 230 144
116 1160 179
580 232 144
117 1170 182
585 234 144
118 1180 182
590 236 144
119 1190 182
595 238 144
120 1200 182
600 240 144
121 1210 182
605 242 144
122 1220 182
610 244 144
123 1230 182
615 246 144
124 1240 182
620 248 144
