1 10 20
100 200 125
201 210 89
900 1000 174
160009 792307 509
780507 124955 509
748165 616988 509
185058 994533 525
904794 981324 507
209602 384681 443
632891 162620 509
800593 425708 509
678837 372039 509
293428 322764 384
29321 18578 308
770407 649467 504
990219 306554 525
190008 682953 509
965948 590964 525
452578 883322 525
576688 709048 509
415293 781101 509
408796 525571 470
589663 884966 525
186543 91261 383
14424 625883 470
515393 344733 470
732746 748370 424
620904 390215 470
926135 764476 525
12963 994652 525
876177 316431 525
315335 38915 443
928948 183426 525
49314 356345 443
16322 527759 470
614215 429386 470
7516 129241 354
153186 349620 443
683887 615744 509
461431 899264 525
721968 549445 509
666891 472320 509
17969 407845 443
512247 71170 470
230036 684854 509
562423 678319 509
792458 327884 509
106395 669275 509
707879 945517 525
488006 914861 525
584140 779013 509
891676 416395 525
246950 531389 470
243671 721761 509
417245 829059 509
17811 329124 443
414942 468724 444
546760 796142 509
898323 674829 525
346382 820525 509
464095 834885 509
140127 300386 443
566914 415131 470
678943 526990 509
986524 100347 525
724566 886254 525
876949 86462 525
163276 14659 383
204651 215314 373
745138 856864 525
72826 866483 525
295527 224235 443
207384 911258 525
786484 417391 509
892717 549435 525
177699 719729 509
224033 616616 470
374625 469208 449
384571 30132 443
551130 68975 470
642833 849045 525
336443 562736 470
613952 274040 470
569444 686247 509
259792 945751 525
426206 446030 400
695948 926179 525
114709 632554 509
541840 157394 470
298994 189624 443
88100 209390 383
524243 853093 525
55647 179363 383
767246 913504 525
360723 685968 509
853775 647798 525
777920 503387 509
653220 486524 509
362266 867535 525
472043 546204 470
599527 270446 470
217205 867566 525
560381 738328 509
285686 289405 389
596551 921416 525
316746 238857 407
515495 631241 509
967219 658933 525
204805 415919 449
190399 688024 509
7740 969154 525
4235 848688 525
770803 702658 504
650989 624408 509
903717 65238 525
88877 949948 525
564446 387900 470
476253 808917 509
22735 139232 354
873524 924282 476
553794 577323 421
130978 372997 443
781495 788586 406
112940 104494 354
151315 83393 375
797471 986227 525
615181 459585 470
987131 407545 525
810325 61332 509
313452 618304 470
871542 860024 388
391050 288918 441
539561 737865 509
547674 496387 470
327145 167277 443
407708 356393 436
132936 18624 354
403424 947716 525
769586 511778 509
513811 935499 525
123545 30498 354
217791 196453 386
945041 905396 507
661959 880093 525
880602 868814 432
172244 816572 509
987987 211356 525
591535 337558 470
373412 92350 443
279033 113727 443
907597 324642 525
382567 15226 443
796352 425022 509
516718 272912 470
653923 973984 525
252655 21883 443
928787 551553 525
72513 676238 509
116344 143842 375
962787 476917 525
598409 114116 470
854744 85757 525
373342 577394 470
812870 631639 504
452464 605748 470
66428 108206 354
265252 844023 525
607271 428102 470
638817 571861 509
539552 688367 509
700094 789982 504
659590 836551 504
18789 545939 470
335429 314899 384
128722 226902 386
76028 585543 470
155697 476012 449
681562 161970 509
772186 151332 509
102773 181990 383
211393 537903 470
874170 314650 525
378469 308876 441
996774 903829 507
287144 422681 449
135294 295995 443
19916 75320 340
802336 936219 525
11099 120305 354
437880 219624 449
39060 629527 509
231030 224906 443
371983 430135 449
352759 694511 509
731137 504858 509
394935 61386 443
848538 848372 282
730310 450019 509
727688 409454 509
573565 14440 470
405492 735283 509
54437 72412 335
318477 169862 443
