1 10 20
100 200 125
201 210 89
900 1000 174
1 999999 525
999001 999991 396
999999 999999 259
1 1 1
2 40 112
800 90 171
165789 890 383
240 1000 179
1100 1300 182
220 530 144
8 8 4
500 999999 525
30 40 107
30 50 110
200 8235 262
500 800 171
900 1000 174
800 1000 179
300 1000 179
320 670 145
100 999999 525
250 9000 262
800 800 29
190 190 107
192 356 144
500 250 144
800 400 171
300 150 128
275 125 128
100 400 144
250 500 144
600 8290 262
540 210 144
390 99999 351
600 700 145
800 700 171
1 50 112
1 80 116
2 90 116
1 15 20
15 30 112
30 45 110
50 75 116
100 120 114
100 115 114
110 160 122
170 180 125
157 157 37
200 200 27
300 315 131
350 365 126
370 385 108
1000 1015 143
3675 3680 163
3 30 112
4 40 112
5 50 112
6 60 113
7 70 113
8 80 116
9 90 116
10 1000 179
10 10000 262
9 9000 262
8 8000 262
7 7000 262
6 6000 238
5 5000 238
4 4000 238
3 3000 217
2 2000 182
1 1000 179
10000 10 262
9000 9 262
8000 8 262
7000 7 262
6000 6 238
5000 5 238
4000 4 238
3000 3 217
2000 2 182
1000 1 179
20 390 144
12 134 122
16 246 128
16 146 122
134 12 122
390 20 144
13 18 21
14 14 18
2 2 2
4 16 20
55 78 116
16 256 128
100 10000 262
400 20 144
29 47 110
51 89 116
32 9 112
90 40 116
17 109 119
109 211 125
193 149 125
79 83 111
131 53 122
19 199 125
209 167 125
13 89 116
854350 523555 525
17147 191438 383
728099 302815 509
392122 447150 449
12857 792361 509
72176 819176 509
810577 191422 509
711925 512909 509
246116 647357 509
405323 351920 436
685262 223547 509
665821 611279 509
261889 858647 525
651796 653208 354
16109 295930 443
816471 970286 525
332881 544040 470
427081 803177 509
714751 865923 525
128832 528235 470
497315 997444 525
675816 501642 509
38263 491333 449
310992 905608 525
263766 361940 441
716281 603424 509
13487 10781 276
572973 967402 525
778237 142284 509
823 8024 262
221677 873856 525
505456 40232 449
215837 472337 449
107997 535072 470
134965 640759 509
442927 846753 525
422065 59497 449
929708 692779 525
794265 243217 509
122604 760504 509
83917 39622 351
741195 450966 509
951611 352074 525
851232 631949 525
810688 175942 509
589706 172786 470
787116 150229 509
200262 740014 509
27302 650891 509
160242 200209 370
342308 890125 525
406017 344566 441
225181 100818 386
643303 511416 509
211411 459811 449
383326 261812 441
792228 674809 504
317784 511607 449
221696 637446 509
334996 938079 525
986866 13606 525
842912 675444 525
542386 568110 452
820776 745197 468
852246 494397 525
27317 587013 470
499528 830437 509
546325 318915 470
550044 289851 470
353106 124426 443
430401 912619 525
987021 179782 525
274004 600357 470
587644 602995 403
197104 800835 509
44169 919719 525
6759 312211 443
506573 946764 525
680008 434986 509
753724 449744 509
921887 514867 525
812178 954801 525
249733 914999 525
435337 355693 449
949292 76136 525
624766 271957 470
149246 196307 383
787708 678092 504
285257 365116 441
520107 496376 470
412624 488354 444
746152 138293 509
407617 42600 443
429096 318818 449
392468 623150 470
630962 699835 442
834779 117444 509
700576 542048 509
668204 662369 442
318845 760685 509
